{
    "orgName": "Scratchy",
    "edition": "Enterprise",
    "language": "en_US",
    "features": ["PersonAccounts",
                "API",
                "AuthorApex",
                "CustomTabs",
                "CustomApps",
                "ExternalSharing",
                "LightningSalesConsole",
                "LightningServiceConsole",
                "ServiceCloud",
                "StateAndCountryPicklist",
                "Communities",
                "CustomerSelfService",
                "ExpandedSourceTracking"
                ],
    "orgPreferences" : {
        "enabled": ["S1DesktopEnabled",
                    "ChatterEnabled",
                    "Translation",
                    "IsAccountTeamsEnabled",
                    "ShowViewHierarchyLink",
                    "IsMiddleNameEnabled",
                    "IsNameSuffixEnabled",
                    "IsOpportunityTeamEnabled",
                    "IsEntitlementsEnabled",
                    "NetworksEnabled",
                    "SocialProfilesEnable"
                    ]
    }
}
